Project 1 Checkpoint 4
…
renewable_summary

# A tibble: 50 × 4
   country                  country_code total_waste renewable_pct
   <chr>                    <chr>              <dbl>         <dbl>
 1 NIGERIA                  NGA               157133          80.1
 2 Philippines              PHL               125667          27.9
 3 Switzerland              CHE                66588          25.7
 4 Indonesia                IDN                34173          20.7
 5 Vietnam                  VNM                28347          19.8
 6 Kenya                    KEN                27426          68.5
 7 ECUADOR                  ECU                25346          17.7
 8 United States of America USA                21158          10.8
 9 Burkina Faso             BFA                20348          72.8
10 India                    IND                19655          35.1
# ℹ 40 more rows
…
